../metadata/SKU {{ String }},cq:productReference {{ String }},dam:productID {{ String }},dc:title {{ String : multi }},relSrcPath,imageName {{ String }},absTargetPath,../metadata/primaryImage {{ String }},../metadata/secondaryImage {{ String }},../metadata/tertiaryImage {{ String }},../metadata/quaternaryImage {{ String }},../metadata/secondaryImage {{ String }},../metadata/quinaryImage {{ String }},../metadata/pdf-warranty {{ String }},../metadata/pdf-instructions {{ String }},../metadata/pdf-spec-sheet-2 {{ String }},../metadata/pdf-sell-sheet {{ String }},../metadata/pdf-sell-sheet-2 {{ String }},../metadata/pdf-miscellaneous {{ String }},../metadata/pdf-miscellaneous-2 {{ String }},../metadata/pdf-miscellaneous-3 {{ String }}
30-032,/etc/commerce/products/electrical/en/buckets/30/30-032,30-032,NOALOX (1 GAL),ToolsSupplies/Electrical_Supplies/Installation_Supplies/Noalox/Noalox30-032 1galBucket.jpg,Noalox30-032 1galBucket.jpg,/content/dam/electrical/ToolsSupplies/Electrical_Supplies/Installation_Supplies/Noalox/30-032-NOALOX_(1_GAL).jpg,Noalox30-032 1galBucket.jpg,,,,,,,,,,,,,
44-809,/etc/commerce/products/electrical/en/buckets/44/44-809,44-809,UNIV SP BREAKER LOCK,ToolsSupplies/Electrical_Supplies/LockoutTagout/Lockout_Devices/BreakerLockout44-809Universal120-277V.jpg,BreakerLockout44-809Universal120-277V.jpg,/content/dam/electrical/ToolsSupplies/Electrical_Supplies/LockoutTagout/Lockout_Devices/44-809-UNIV_SP_BREAKER_LOCK.jpg,BreakerLockout44-809Universal120-277V.jpg,BreakerLockoutUniversal ApplicationShot.jpg,,,,,,,,,,,,
46-391,/etc/commerce/products/electrical/en/buckets/46/46-391,46-391,6"-3/8 HTSHHVYWL HTS,ToolsSupplies/Electrical_Supplies/Heat_Shrink/ThermoShrink-TubingHeavyWall.jpg,ThermoShrink-TubingHeavyWall.jpg,/content/dam/electrical/ToolsSupplies/Electrical_Supplies/Heat_Shrink/46-391-6"-3/8_HTSHHVYWL_HTS.jpg,ThermoShrink-TubingHeavyWall.jpg,,,,,,,,,,,,,
35-396,/etc/commerce/products/electrical/en/buckets/35/35-396,35-396,HOLE SAW ARBOR EXTEN,ToolsSupplies/Electrical_Supplies/Power_Tool_Accessories/Hole_Saws/Bi-Metal/ArborExtension35-396.jpg,ArborExtension35-396.jpg,/content/dam/electrical/ToolsSupplies/Electrical_Supplies/Power_Tool_Accessories/Hole_Saws/Bi-Metal/35-396-HOLE_SAW_ARBOR_EXTEN.jpg,ArborExtension35-396.jpg,,,,,,HoleSaw Instructions.pdf,,,Bi-Metal Hole Saw SS.pdf,,,,
